%YAML 1.1
%TAG !u! tag:unity3d.com,2011:
--- !u!114 &11400000
MonoBehaviour:
  m_ObjectHideFlags: 0
  m_CorrespondingSourceObject: {fileID: 0}
  m_PrefabInstance: {fileID: 0}
  m_PrefabAsset: {fileID: 0}
  m_GameObject: {fileID: 0}
  m_Enabled: 1
  m_EditorHideFlags: 0
  m_Script: {fileID: 11500000, guid: 39620eaa46414d3c848283b13c6b7032, type: 3}
  m_Name: GridViewConfigSOs
  m_EditorClassIdentifier: 
  <TilePrefab>k__BackingField: {fileID: 4832621550565755067, guid: d3dca65e2e5c88243bdcdcaf14601357, type: 3}
  <Snapping>k__BackingField: {x: 0.5, y: 0.5}
