%YAML 1.1
%TAG !u! tag:unity3d.com,2011:
--- !u!114 &11400000
MonoBehaviour:
  m_ObjectHideFlags: 0
  m_CorrespondingSourceObject: {fileID: 0}
  m_PrefabInstance: {fileID: 0}
  m_PrefabAsset: {fileID: 0}
  m_GameObject: {fileID: 0}
  m_Enabled: 1
  m_EditorHideFlags: 0
  m_Script: {fileID: 11500000, guid: d32873554a354c239b41f291c0e1958e, type: 3}
  m_Name: NewGardenTileConfigSO
  m_EditorClassIdentifier: 
  <TileState>k__BackingField:
    <WetnessState>k__BackingField: 2
    <RichnessState>k__BackingField: 2
    <TemperatureState>k__BackingField: 2
