{
    "name": "Time.StateMachine",
    "rootNamespace": "",
    "references": [
        "GUID:b0214a6008ed146ff8f122a6a9c2f6cc",
        "GUID:1707b927bd0bce940846b643c2f96cbf",
        "GUID:02529d39f26199e4b9478facb60bfa99",
        "GUID:c1dd7c8382fc0bb4ba01690230dc1c67",
        "GUID:ea46621ecbcb920478b387b6e6d27741",
        "GUID:6d135a9ff946473ebcd1d063b2b18166"
    ],
    "includePlatforms": [],
    "excludePlatforms": [],
    "allowUnsafeCode": false,
    "overrideReferences": false,
    "precompiledReferences": [],
    "autoReferenced": true,
    "defineConstraints": [],
    "versionDefines": [],
    "noEngineReferences": false
}