%YAML 1.1
%TAG !u! tag:unity3d.com,2011:
--- !u!114 &11400000
MonoBehaviour:
  m_ObjectHideFlags: 0
  m_CorrespondingSourceObject: {fileID: 0}
  m_PrefabInstance: {fileID: 0}
  m_PrefabAsset: {fileID: 0}
  m_GameObject: {fileID: 0}
  m_Enabled: 1
  m_EditorHideFlags: 0
  m_Script: {fileID: 11500000, guid: 43e6601aceca40b18e1de2548294fd8e, type: 3}
  m_Name: HandViewConfigSO
  m_EditorClassIdentifier: 
  <CardTreeAsset>k__BackingField: {fileID: 9197481963319205126, guid: b11f9dacf6d896e4799bf08246f5ac6c,
    type: 3}
  <CardOffset>k__BackingField: {x: 50, y: 0}
  <MaxRotationDeg>k__BackingField: 30
