{
    "name": "CraftingPotion",
    "rootNamespace": "",
    "references": [
        "GUID:b0214a6008ed146ff8f122a6a9c2f6cc",
        "GUID:43220d8a3e9572f49a98330188e87b5b",
        "GUID:c62e8273ebd640738d39f90de5a9d99b",
        "GUID:0e04f5d7ad364a82a14ebd4c10119bb0",
        "GUID:5b141b9c07164da997002931618ead9b",
        "GUID:61ea287025084bcbb06b6dd7527918b0",
        "GUID:6bb78ac701c95df40b9ad36000d0fe25"
    ],
    "includePlatforms": [],
    "excludePlatforms": [],
    "allowUnsafeCode": false,
    "overrideReferences": false,
    "precompiledReferences": [],
    "autoReferenced": true,
    "defineConstraints": [],
    "versionDefines": [],
    "noEngineReferences": false
}