{
    "name": "Garden.Deck.StateMachine",
    "rootNamespace": "",
    "references": [
        "GUID:b0214a6008ed146ff8f122a6a9c2f6cc",
        "GUID:1707b927bd0bce940846b643c2f96cbf",
        "GUID:7512b773a83fc5a4b81354bcac49c352",
        "GUID:02529d39f26199e4b9478facb60bfa99",
        "GUID:bf361edb969b2384d886ac450de91890",
        "GUID:b9a32f88212949bd9beeaa4c5c8fe2c3",
        "GUID:5b141b9c07164da997002931618ead9b",
        "GUID:68c14ac3c3704ee78d1ea431a551fce7"
    ],
    "includePlatforms": [],
    "excludePlatforms": [],
    "allowUnsafeCode": false,
    "overrideReferences": false,
    "precompiledReferences": [],
    "autoReferenced": true,
    "defineConstraints": [],
    "versionDefines": [],
    "noEngineReferences": false
}