{
    "name": "InputSystem.Garden",
    "rootNamespace": "",
    "references": [
        "GUID:b0214a6008ed146ff8f122a6a9c2f6cc",
        "GUID:75469ad4d38634e559750d17036d5f7c"
    ],
    "includePlatforms": [],
    "excludePlatforms": [],
    "allowUnsafeCode": false,
    "overrideReferences": false,
    "precompiledReferences": [],
    "autoReferenced": true,
    "defineConstraints": [],
    "versionDefines": [],
    "noEngineReferences": false
}